{
    "leading_muon_pt": {
        "bins": [
            {
                "name": "pt",
                "label": "$p_{\\mathrm{T}}$",
                "n_or_arr": 37,
                "lo": 30,
                "hi": 400,
                "unit": "GeV"
            }
        ],
        "fill": {
            "pt": [
                "Muon",
                "pt",
                {"leading": 1}
            ]
        }
    },
    "leading_muon_abseta": {
        "bins": [
            {
                "name": "abseta",
                "label": "$\\left|\\eta\\right|$",
                "n_or_arr": 48,
                "lo": 0,
                "hi": 2.4
            }
        ],
        "fill": {
            "abseta":[
                "Muon",
                "eta",
                {"function": "abs"},
                {"leading": 1}
            ]
        }
    },
    "Delta_R_l_mu_l_jet": {
        "bins": [
            {
                "name": "dR_l_mu_l_jet",
                "label": "$\\Delta R_{\\mu_{L}, jet_{lead}}$",
                "n_or_arr": 50,
                "lo": 0,
                "hi": 1.0
            }
        ],
        "fill": {
            "dR_l_mu_l_jet": [
                "dR_l_mu_l_jet"
            ]
        }
    },
    "Delta_R_l_mu_s_jet": {
        "bins": [
            {
                "name": "dR_l_mu_s_jet",
                "label": "$\\Delta R_{\\mu_{L} , jet_{sub}}$",
                "n_or_arr": 50,
                "lo": 0,
                "hi": 1.0
            }
        ],
        "fill": {
            "dR_l_mu_s_jet": [
                "dR_l_mu_s_jet"
            ]
        }
    }, 
    "Delta_R_l_jet": {
        "bins": [
            {
                "name": "dR_l_jet",
                "label": "$\\Delta R_{\\mu, jet_{L}}$",
                "n_or_arr": 50,
                "lo": 0,
                "hi": 1.0
            }
        ],
        "fill": {
            "dR_l_jet": [
                "dR_l_jet"
            ]
        }
    },
    "Delta_R_s_jet": {
        "bins": [
            {
                "name": "dR_s_jet",
                "label": "$\\Delta R_{\\mu, jet_{S}}$",
                "n_or_arr": 50,
                "lo": 0,
                "hi": 1.0
            }
        ],
        "fill": {
            "dR_s_jet": [
                "dR_s_jet"
            ]
        }
    },
    "Delta_phi_l_mu_l_jet": {
        "bins": [
            {
                "name": "Dphi_l_mu_l_jet",
                "label": "$\\Delta \\phi_{\\mu_{L}, jet_{lead}}$",
                "n_or_arr": 90,
                "lo": 0,
                "hi": 3
            }
        ],
        "fill": {
            "Dphi_l_mu_l_jet": [
                "Dphi_l_mu_l_jet"
            ]
        }
    },
    "Delta_phi_l_mu_s_jet": {
        "bins": [
            {
                "name": "Dphi_l_mu_s_jet",
                "label": "$\\Delta \\phi_{\\mu_{L} , jet_{sub}}$",
                "n_or_arr": 90,
                "lo": 0,
                "hi": 3
            }
        ],
        "fill": {
            "Dphi_l_mu_s_jet": [
                "Dphi_l_mu_s_jet"
            ]
        }
    },

    "Delta_phi_l_jet_mus": {
        "bins": [
            {
                "name": "Dphi_l_jet_mus",
                "label": "$\\Delta \\phi_{\\mu, jet_{L}}$",
                "n_or_arr": 90,
                "lo": 0,
                "hi": 3
            }
        ],
        "fill": {
            "Dphi_l_jet_mus": [
                "Dphi_l_jet_mus"
            ]
        }
    },
    "Delta_phi_s_jet_mus": {
        "bins": [
            {
                "name": "Dphi_s_jet_mus",
                "label": "$\\Delta \\phi_{\\mu , jet_{S}}$",
                "n_or_arr": 90,
                "lo": 0,
                "hi": 3
            }
        ],
        "fill": {
            "Dphi_s_jet_mus": [
                "Dphi_s_jet_mus"
            ]
        }
    },
    "subleading_muon_pt": {
        "bins": [
            {
                "name": "pt",
                "label": "$p_{\\mathrm{T}}$",
                "n_or_arr": 28,
                "lo": 20,
                "hi": 300,
                "unit": "GeV"
            }
        ],
        "fill": {
            "pt": [
                "Muon",
                "pt",
                {"leading": 2}
            ]
        }
    },
    "subleading_muon_abseta": {
        "bins": [
            {
                "name": "abseta",
                "label": "$\\left|\\eta\\right|$",
                "n_or_arr": 48,
                "lo": 0, 
                "hi": 2.4
            }
        ],
        "fill": {
            "abseta":[
                "Muon",
                "eta",
                {"function": "abs"},
                {"leading": 2}
            ]
        }
    },
    "Delta_R_s_mu_l_jet": {
        "bins": [
            {
                "name": "dR_s_mu_l_jet",
                "label": "$\\Delta R_{\\mu_{S} , jet_{lead}}$",
                "n_or_arr": 50,
                "lo": 0,
                "hi": 1.0
            }
        ],
        "fill": {
            "dR_s_mu_l_jet": [
                "dR_s_mu_l_jet"
            ]
        }
    },
    "Delta_R_s_mu_s_jet": {
        "bins": [
            {
                "name": "dR_s_mu_s_jet",
                "label": "$\\Delta R_{\\mu_{S} , jet_{sub}}$",
                "n_or_arr": 50,
                "lo": 0,
                "hi": 1.0
            }
        ],
        "fill": {
            "dR_s_mu_s_jet": [
                "dR_s_mu_s_jet"
            ]
        }
    },
    "Delta_phi_s_mu_l_jet": {
        "bins": [
            {
                "name": "Dphi_s_mu_l_jet",
                "label": "$\\Delta \\phi_{\\mu_{S}, jet_{lead}}$",
                "n_or_arr": 90,
                "lo": 0,
                "hi": 3.0
            }
        ],
        "fill": {
            "Dphi_s_mu_l_jet": [
                "Dphi_s_mu_l_jet"
            ]
        }
    },
    "Delta_phi_s_mu_s_jet": {
        "bins": [
            {
                "name": "Dphi_s_mu_s_jet",
                "label": "$\\Delta \\phi_{\\mu_{S} , jet_{sub}}$",
                "n_or_arr": 90,
                "lo": 0,
                "hi": 3.0
            }
        ],
        "fill": {
            "Dphi_s_mu_s_jet": [
                "Dphi_s_mu_s_jet"
            ]
        }
    },
    "Zboson_mass": {
        "bins": [
            {
                "name": "mll",
                "label": "$m_{\\mathrm{ll}}$",
                "n_or_arr": 15,
                "lo": 76,
                "hi": 106,
                "unit": "GeV"
            }
        ],
        "fill": {
            "mll":[
                "dimuon",
                "mass"
            ]
        }
    }, 
    "Zboson_pt": {
        "bins": [
            {
                "name": "pTll",
                "label": "$p_{\\mathrm{Tll}}$",
                "n_or_arr": 40,
                "lo": 0,
                "hi": 400,
                "unit": "GeV"
            }
        ],
        "fill": {
            "pTll":[
                "dimuon",
                "pt"
            ]
        }
    },

    "Zboson_abseta": {
        "bins": [
            {
                "name": "dimu_abseta",
                "label": "$\\left|\\eta\\right|$",
                "n_or_arr": 48,
                "lo": 0,
                "hi": 2.4
            }
        ],
        "fill": {
            "dimu_abseta":[
                "dimuon",
                "eta",
                {"function": "abs"}
            ]
        }
    },
    "Zboson_phi": {
        "bins": [
            {
                "name": "phill",
                "label": "$\\left|\\phi\\right|$",
                "n_or_arr": 100,
                "lo": 0,
                "hi": 5
            }
        ],
        "fill": {
            "phill":[
                "dimuon",
                "phi"
            ]
        }
    },
    "detall": {
        "bins": [
            {
                "name": "detall",
                "label": "$\\Delta \\eta{\\mu_{L} \\mu_{S}}$",
                "n_or_arr": 25,
                "lo": 0,
                "hi": 5
            }
        ],
        "fill": {
            "detall": [
                "detall"
            ]
        }
    },
    "dphill": {
        "bins": [
            {
                "name": "dphill",
                "label": "$\\Delta \\phi{\\mu_{L} \\mu_{S}}$",
                "n_or_arr": 31,
                "lo": 0,
                "hi": 6.2
            }
        ],
        "fill": {
            "dphill": [
                "dphill"
            ]
        }
    },
    "leading_jet_pt": {
        "bins": [
            {
                "name": "pt",
                "label": "$p_{\\mathrm{T}}$",
                "n_or_arr": 25,
                "lo": 50,
                "hi": 550,
                "unit": "GeV"
            }
        ],
        "fill": {
            "pt": [
                "Jet",
                "pt",
                {"leading": 1}
            ]
        }
    },
    "leading_jet_abseta": {
        "bins": [
            {
                "name": "abseta",
                "label": "$\\left|\\eta\\right|$",
                "n_or_arr": 11,
                "lo": 0,
                "hi": 4.7
            }
        ],
        "fill": {
            "abseta":[
                "Jet",
                "eta",
                {"function": "abs"},
                {"leading": 1}
            ]
        }
    },
    "DphiZ_l_jet": {
        "bins": [
            {
                "name": "DphiZ_l_jet",
                "label": "$\\Delta \\phi{Z j_{L}}$",
                "n_or_arr": 31,
                "lo": 0,
                "hi": 6.2
            }
        ],
        "fill": {
            "DphiZ_l_jet": [
                "DphiZ_l_jet"
            ]
        }
    },
    "DphiZ_s_jet": {
        "bins": [
            {
                "name": "DphiZ_s_jet",
                "label": "$\\Delta \\phi{Z j_{S}}$",
                "n_or_arr":31 ,
                "lo": 0,
                "hi": 6.2
            }
        ],
        "fill": {
            "DphiZ_s_jet": [
                "DphiZ_l_jet"
            ]
        }
    },
    "DphiZ_jets": {
        "bins": [
            {
                "name": "DphiZ_jets",
                "label": "$\\Delta \\phi{Z jj}$",
                "n_or_arr":31 ,
                "lo": 0,
                "hi": 6.2
            }
        ],
        "fill": {
            "DphiZ_jets": [
                "DphiZ_jets"
            ]
        }
    }, 
    "subleading_jet_pt": {
        "bins": [
            {
                "name": "pt",
                "label": "$p_{\\mathrm{T}}$",
                "n_or_arr": 24,
                "lo": 30,
                "hi": 510,
                "unit": "GeV"
            }
        ],
        "fill": {
            "pt": [
                "Jet",
                "pt",
                {"leading": 2}
            ]
        }
    },
    "subleading_jet_abseta": {
        "bins": [
            {
                "name": "abseta",
                "label": "$\\left|\\eta\\right|$",
                "n_or_arr": 11,
                "lo": 0, 
                "hi": 4.7
            }
        ],
        "fill": {
            "abseta":[
                "Jet",
                "eta",
                {"function": "abs"},
                {"leading": 2}
            ]
        }
    },
    "Dijet_mass": {
        "bins": [
            {
                "name": "mjj",
                "label": "$m_{\\mathrm{jj}}$",
                "n_or_arr": 72,
                "lo": 120,
                "hi": 3000,
                "unit": "GeV"
            }
        ],
        "fill": {
            "mjj":[
                "dijet",
                "mass"
            ]
        }
    },
    "Dijet_pt": {
        "bins": [
            {
                "name": "pTjj",
                "label": "$p_{\\mathrm{Tjj}}$",
                "n_or_arr": 24,
                "lo": 30,
                "hi": 510,
                "unit": "GeV"
            }
        ],
        "fill": {
            "pTjj":[
                "dijet",
                "pt"
            ]
        }
    },
    "Dijet_abseta": {
        "bins": [
            {
                "name": "dijet_abseta",
                "label": "$\\left|\\eta\\right|$",
                "n_or_arr": 48,
                "lo": 0,
                "hi": 2.4
            }
        ],
        "fill": {
            "dijet_abseta":[
                "dijet",
                "eta",
                {"function": "abs"}
            ]
        }
    },
    "Dijet_phi": {
        "bins": [
            {
                "name": "phijj",
                "label": "$\\phi_{\\mathrm{jj}}$",
                "n_or_arr": 31,
                "lo": 0,
                "hi": 6.2
            }
        ],
        "fill": {
            "phijj":[
                "dijet",
                "phi"
            ]
        }
    },
    "detajj": {
        "bins": [
            {
                "name": "detajj",
                "label": "$\\Delta \\eta{j_{L} j_{S}}$",
                "n_or_arr": 25,
                "lo": 0,
                "hi": 5
            }
        ],
        "fill": {
            "detajj": [
                "detajj"
            ]
        }
    },
    "dphijj": {
        "bins": [
            {
                "name": "dphijj",
                "label": "$\\Delta \\phi{j_{L} j_{S}}$",
                "n_or_arr": 31,
                "lo": 0,
                "hi": 6.2
            }
        ],
        "fill": {
            "dphijj": [
                "dphijj"
            ]
        }
    },

    "number_of_jets": {
        "bins": [
            {
                "name": "njets",
                "label": "Number of jets",
                "n_or_arr": 15,
                "lo": 1.5,
                "hi": 15.5
            }
        ],
        "fill": {
            "njets": [
                "Jet",
                {"function": "num"}
            ]
        }
    },
    "number_of_low_pT_jets": {
        "bins": [
            {
                "name": "num_lowpT_jets",
                "label": "Number of jets",
                "n_or_arr": 15,
                "lo": 1.5,
                "hi": 15.5
            }
        ],
        "fill": {
            "num_lowpT_jets": [
                "num_lowpT_jets"
            ]
        }
    }
}
