{
    "EWK_LLJJ_MLL-50_MJJ-120_TuneCP5_13TeV-madgraph-pythia8_dipole": 0.012962915301235192,
    "EWK_LLJJ_MLL-50_MJJ-120_TuneCP5_13TeV-madgraph-pythia8_dipole_LHEScaleSumw": [
        0.9850868905450394,
        1.0,
        1.0184122335337624,
        0.9850868905450394,
        1.0184122335337624,
        0.9850868905450394,
        1.0,
        1.0184122335337624
    ],
    "DYJetsToLL_M-50_TuneCP5_13TeV-amcatnloFXFX-pythia8": 0.000109403507314784,
    "DYJetsToLL_M-50_TuneCP5_13TeV-amcatnloFXFX-pythia8_LHEScaleSumw": [
        1.016892388135666,
        0.9860742314454644,
        0.9709521258690414,
        1.041295904419831,
        1.0,
        0.9757284170185065,
        1.0645278672988088,
        1.014388907842171,
        0.9825730700461279
    ],
    "TTTo2L2Nu_TuneCP5_13TeV-powheg-pythia8": 0.0005051261778408908,
    "TTTo2L2Nu_TuneCP5_13TeV-powheg-pythia8_LHEScaleSumw": [
        0.8877547218223288,
        0.9034484476942752,
        0.9138802591178424,
        0.9759885457818458,
        1.0000041266609818,
        1.0192885370963711,
        1.078522974922362,
        1.1103779530514701,
        1.137988296945682
    ],
    "TTToSemiLeptonic_TuneCP5_13TeV-powheg-pythia8": 0.0001528740717142334,
    "TTToSemiLeptonic_TuneCP5_13TeV-powheg-pythia8_LHEScaleSumw": [
        0.8877549504696207,
        0.9034380677160911,
        0.9138600690835793,
        0.9759976260720279,
        0.9999934071729957,
        1.0192775708575752,
        1.0785392881800264,
        1.1103843781383884,
        1.1379848689598633
    ],
    "ST_tW_top_5f_inclusiveDecays_TuneCP5_13TeV-powheg-pythia8": 0.00809129289860037,
    "ST_tW_top_5f_inclusiveDecays_TuneCP5_13TeV-powheg-pythia8_LHEScaleSumw": [
        0.9726065671728942,
        0.9538318562540041,
        0.9324531782197188,
        1.028415381659762,
        0.9999954366178987,
        0.973498216973216,
        1.0867228760276284,
        1.0498717229607193,
        1.0188468245096014
    ],
    "ST_tW_antitop_5f_inclusiveDecays_TuneCP5_13TeV-powheg-pythia8": 0.00830582426660535,
    "ST_tW_antitop_5f_inclusiveDecays_TuneCP5_13TeV-powheg-pythia8_LHEScaleSumw": [
        0.9727308537997824,
        0.9537813291887989,
        0.9322895129981599,
        1.0285214044477093,
        0.9999508295991539,
        0.9733623147339484,
        1.0868143931898973,
        1.0498315011377977,
        1.0187319546981535
    ],
    "ST_t-channel_top_4f_InclusiveDecays_TuneCP5_13TeV-powheg-madspin-pythia8": 0.0004293143954578244,
    "ST_t-channel_top_4f_InclusiveDecays_TuneCP5_13TeV-powheg-madspin-pythia8_LHEScaleSumw": [
        0.9533895459827544,
        0.9540523146476243,
        0.9451156193298164,
        0.9977924132498652,
        1.0000144375001223,
        0.9961627028566163,
        1.0527910425120204,
        1.0563850628319675,
        1.0563518186906837
    ],
    "ST_t-channel_antitop_4f_InclusiveDecays_TuneCP5_13TeV-powheg-madspin-pythia8": 0.0007920324078537458,
    "ST_t-channel_antitop_4f_InclusiveDecays_TuneCP5_13TeV-powheg-madspin-pythia8_LHEScaleSumw": [
        0.9502321251413053,
        0.9500023906165935,
        0.9409371499437217,
        0.9981070265715446,
        1.0000004938534854,
        0.9963484425008878,
        1.0554954901943776,
        1.0592247159739496,
        1.0596450194050404
    ],
    "ST_s-channel_4f_leptonDecays_TuneCP5_13TeV-amcatnlo-pythia8": 0.008978795946853366,
    "ST_s-channel_4f_leptonDecays_TuneCP5_13TeV-amcatnlo-pythia8_LHEScaleSumw": [
        1.9704288215281387,
        1.9466208952830941,
        1.9272207053142358,
        2.028137372195153,
        1.0000000000000002,
        1.9774193876502153,
        2.0777345378466143,
        2.045721849488994,
        2.0203104050874763
    ],
    "WW_TuneCP5_13TeV-pythia8": 0.2892453922675915,
    "WZ_TuneCP5_13TeV-pythia8": 0.20797329974811082,
    "ZZ_TuneCP5_13TeV-pythia8": 0.20599438457175268
}