{
    "year": "ul2016pre",
    "datadir": ".",
    "store": "/pnfs/desy.de/cms/tier2/store",
    "file_mode": "local+xrootd",
    "xrootddomain": "xrootd-cms.infn.it",
    "rng_seed_file": "$CONFDIR/seed.txt",
    "compute_systematics":true,
    "lumimask": "$CONFDIR/EWZjj_2016/EWZjj_2016_lumi/Cert_271036-284044_13TeV_Legacy2016_Collisions16_JSON.txt",
    "luminosity": 19.5,
    "mc_lumifactors":"$CONFDIR/EWZjj_2016/EWZjj_2016_lumi/EWZjj_2016_preVFP_19p5_lumi.json",
    "crosssections": "$CONFDIR/EWZjj_2016/EWZjj_xsec_corr/EWZjj_crosssections_2016.json",
    "pileup_reweighting":"$CONFDIR/EWZjj_2016/EWZjj_2016_preVFP/EWZjj_PU/pileup_UL16preVFP.root",
    "muon_rochester":"$CONFDIR/EWZjj_2016/EWZjj_2016_preVFP/EWZjj_files_MuMu/EWZjj_muon_corr/roccor/RoccoR2016aUL.txt",
    "bad_file_paths": [],
    "exp_datasets": {
        "SingleMuon": [
            "/SingleMuon/Run2016B-ver2_HIPM_UL2016_MiniAODv2_NanoAODv9-v2/NANOAOD",
            "/SingleMuon/Run2016C-HIPM_UL2016_MiniAODv2_NanoAODv9-v2/NANOAOD",
            "/SingleMuon/Run2016D-HIPM_UL2016_MiniAODv2_NanoAODv9-v2/NANOAOD",
            "/SingleMuon/Run2016E-HIPM_UL2016_MiniAODv2_NanoAODv9-v2/NANOAOD",
            "/SingleMuon/Run2016F-HIPM_UL2016_MiniAODv2_NanoAODv9-v2/NANOAOD"
        ]
    },
    "mc_datasets": {
        "EWK_LLJJ_MLL-50_MJJ-120_TuneCP5_13TeV-madgraph-pythia8_dipole":[
            "/EWK_LLJJ_MLL-50_MJJ-120_TuneCP5_13TeV-madgraph-pythia8_dipole/RunIISummer20UL16NanoAODAPVv9-106X_mcRun2_asymptotic_preVFP_v11-v1/NANOAODSIM"
        ],
        "DYJetsToLL_M-50_TuneCP5_13TeV-amcatnloFXFX-pythia8": [
            "/DYJetsToLL_M-50_TuneCP5_13TeV-amcatnloFXFX-pythia8/RunIISummer20UL16NanoAODAPVv9-106X_mcRun2_asymptotic_preVFP_v11-v1/NANOAODSIM"
        ],
        "TTTo2L2Nu_TuneCP5_13TeV-powheg-pythia8":[
            "/TTTo2L2Nu_TuneCP5_13TeV-powheg-pythia8/RunIISummer20UL16NanoAODAPVv9-106X_mcRun2_asymptotic_preVFP_v11-v1/NANOAODSIM"
        ],
        "TTToSemiLeptonic_TuneCP5_13TeV-powheg-pythia8":[
            "/TTToSemiLeptonic_TuneCP5_13TeV-powheg-pythia8/RunIISummer20UL16NanoAODAPVv9-106X_mcRun2_asymptotic_preVFP_v11-v1/NANOAODSIM"
        ],
        "ST_tW_top_5f_inclusiveDecays_TuneCP5_13TeV-powheg-pythia8":[
            "/ST_tW_top_5f_inclusiveDecays_TuneCP5_13TeV-powheg-pythia8/RunIISummer20UL16NanoAODAPVv9-106X_mcRun2_asymptotic_preVFP_v11-v1/NANOAODSIM"
        ],
        "ST_tW_antitop_5f_inclusiveDecays_TuneCP5_13TeV-powheg-pythia8":[
            "/ST_tW_antitop_5f_inclusiveDecays_TuneCP5_13TeV-powheg-pythia8/RunIISummer20UL16NanoAODAPVv9-106X_mcRun2_asymptotic_preVFP_v11-v1/NANOAODSIM"
        ],
        "ST_t-channel_top_4f_InclusiveDecays_TuneCP5_13TeV-powheg-madspin-pythia8":[
            "/ST_t-channel_top_4f_InclusiveDecays_TuneCP5_13TeV-powheg-madspin-pythia8/RunIISummer20UL16NanoAODAPVv9-106X_mcRun2_asymptotic_preVFP_v11-v1/NANOAODSIM"
        ],
        "ST_t-channel_antitop_4f_InclusiveDecays_TuneCP5_13TeV-powheg-madspin-pythia8":[
            "/ST_t-channel_antitop_4f_InclusiveDecays_TuneCP5_13TeV-powheg-madspin-pythia8/RunIISummer20UL16NanoAODAPVv9-106X_mcRun2_asymptotic_preVFP_v11-v1/NANOAODSIM"
        ],
        "ST_s-channel_4f_leptonDecays_TuneCP5_13TeV-amcatnlo-pythia8":[
            "/ST_s-channel_4f_leptonDecays_TuneCP5_13TeV-amcatnlo-pythia8/RunIISummer20UL16NanoAODAPVv9-106X_mcRun2_asymptotic_preVFP_v11-v1/NANOAODSIM"
        ],
        "WW_TuneCP5_13TeV-pythia8":[
            "/WW_TuneCP5_13TeV-pythia8/RunIISummer20UL16NanoAODAPVv9-106X_mcRun2_asymptotic_preVFP_v11-v1/NANOAODSIM"
        ],
        "WZ_TuneCP5_13TeV-pythia8":[
            "/WZ_TuneCP5_13TeV-pythia8/RunIISummer20UL16NanoAODAPVv9-106X_mcRun2_asymptotic_preVFP_v11-v1/NANOAODSIM"
        ],
        "ZZ_TuneCP5_13TeV-pythia8":[
            "/ZZ_TuneCP5_13TeV-pythia8/RunIISummer20UL16NanoAODAPVv9-106X_mcRun2_asymptotic_preVFP_v11-v1/NANOAODSIM" 
        ]
    },
    "crosssection_uncertainty": {
        "EWK_LLJJ_MLL-50_MJJ-120_TuneCP5_13TeV-madgraph-pythia8_dipole": [
            "EWKZ",
            0.3
        ],
        "DYJetsToLL_M-50_TuneCP5_13TeV-amcatnloFXFX-pythia8": [
            "DY",
            0.3
        ],
        "TTTo2L2Nu_TuneCP5_13TeV-powheg-pythia8": [
            "TT",
            0.3
        ],
        "TTToSemiLeptonic_TuneCP5_13TeV-powheg-pythia8": [
            "TT",
            0.3
        ],
        "ST_tW_top_5f_inclusiveDecays_TuneCP5_13TeV-powheg-pythia8": [
            "ST",
            0.15
        ],
        "ST_tW_antitop_5f_inclusiveDecays_TuneCP5_13TeV-powheg-pythia8": [
            "ST",
            0.15
        ],
        "ST_t-channel_top_4f_InclusiveDecays_TuneCP5_13TeV-powheg-madspin-pythia8": [
            "ST",
            0.15
        ],
        "ST_t-channel_antitop_4f_InclusiveDecays_TuneCP5_13TeV-powheg-madspin-pythia8": [
            "ST",
            0.15
        ],
        "ST_s-channel_4f_leptonDecays_TuneCP5_13TeV-amcatnlo-pythia8": [
            "ST",
            0.15
        ],
        "WW_TuneCP5_13TeV-pythia8": [
            "VV",
            0.3
        ],
        "WZ_TuneCP5_13TeV-pythia8": [
            "VV",
            0.3
       ],
        "ZZ_TuneCP5_13TeV-pythia8": [
            "VV",
            0.3
        ]
    },
    "dataset_for_systematics": {
    },
    "dataset_trigger_order": [
        "SingleMuon"
    ],
    "dataset_trigger_map": {
        "SingleMuon": [
            "HLT_IsoMu24"
        ]
    },
    "muon_sf": [
        [
            "$CONFDIR/EWZjj_2016/EWZjj_2016_preVFP/EWZjj_files_MuMu/EWZjj_muon_corr/Efficiencies_muon_generalTracks_Z_Run2016_UL_HIPM_ID.root",
            "NUM_MediumID_DEN_TrackerMuons_abseta_pt",
            ["pt", "abseta"]
        ],
        [
            "$CONFDIR/EWZjj_2016/EWZjj_2016_preVFP/EWZjj_files_MuMu/EWZjj_muon_corr/Efficiencies_muon_generalTracks_Z_Run2016_UL_HIPM_ISO.root",
            "NUM_TightRelIso_DEN_MediumID_abseta_pt",
            ["pt", "abseta"]
        ],
        [
            "$CONFDIR/EWZjj_2016/EWZjj_2016_preVFP/EWZjj_files_MuMu/EWZjj_muon_corr/Efficiencies_muon_generalTracks_Z_Run2016_UL_HIPM_SingleMuonTriggers.root",
            "NUM_IsoMu24_or_IsoTkMu24_DEN_CutBasedIdMedium_and_PFIsoMedium_abseta_pt",
            ["pt", "abseta"]
        ],
        [
            "$CONFDIR/EWZjj_2016/EWZjj_2016_preVFP/EWZjj_files_MuMu/EWZjj_muon_corr/Efficiency_muon_generalTracks_Run2016preVFP_UL_trackerMuon.root",
            "NUM_TrackerMuons_DEN_genTracks",
            ["pt", "abseta"]
        ]

    ],
    "split_muon_uncertainty":false,
    "reapply_jec": false,
    "jet_correction_mc": [
        "$CONFDIR/EWZjj_2016/EWZjj_2016_preVFP/EWZjj_jet_corr/JEC/JEC_MC/Summer19UL16APV_V7_MC_L1FastJet_AK4PFchs.txt",
        "$CONFDIR/EWZjj_2016/EWZjj_2016_preVFP/EWZjj_jet_corr/JEC/JEC_MC/Summer19UL16APV_V7_MC_L2Relative_AK4PFchs.txt",
        "$CONFDIR/EWZjj_2016/EWZjj_2016_preVFP/EWZjj_jet_corr/JEC/JEC_MC/Summer19UL16APV_V7_MC_L3Absolute_AK4PFchs.txt"
    ],
    "jet_uncertainty": "$CONFDIR/EWZjj_2016/EWZjj_2016_preVFP/EWZjj_jet_corr/JEC/JEC_MC/Summer19UL16APV_V7_MC_Uncertainty_AK4PFPuppi.txt",
    "jet_data_uncertainty":{
         "RunB":["$CONFDIR/EWZjj_2016/EWZjj_2016_preVFP/EWZjj_jet_corr/JEC/JEC_data/Summer19UL16APV_RunBCD_V7_DATA_Uncertainty_AK4PFchs.txt"],
         "RunC":["$CONFDIR/EWZjj_2016/EWZjj_2016_preVFP/EWZjj_jet_corr/JEC/JEC_data/Summer19UL16APV_RunBCD_V7_DATA_Uncertainty_AK4PFchs.txt"],
         "RunD":["$CONFDIR/EWZjj_2016/EWZjj_2016_preVFP/EWZjj_jet_corr/JEC/JEC_data/Summer19UL16APV_RunBCD_V7_DATA_Uncertainty_AK4PFchs.txt"],
         "RunE":["$CONFDIR/EWZjj_2016/EWZjj_2016_preVFP/EWZjj_jet_corr/JEC/JEC_data/Summer19UL16APV_RunEF_V7_DATA_Uncertainty_AK4PFchs.txt"],
         "RunF":["$CONFDIR/EWZjj_2016/EWZjj_2016_preVFP/EWZjj_jet_corr/JEC/JEC_data/Summer19UL16APV_RunEF_V7_DATA_Uncertainty_AK4PFchs.txt"]
    },
    "jet_resolution": "$CONFDIR/EWZjj_2016/EWZjj_2016_preVFP/EWZjj_jet_corr/JER/JER_MC/Summer20UL16APV_JRV3_MC_PtResolution_AK4PFchs.txt",
    "jet_ressf": "$CONFDIR/EWZjj_2016/EWZjj_2016_preVFP/EWZjj_jet_corr/JER/JER_MC/Summer20UL16APV_JRV3_MC_SF_AK4PFchs.txt",
    "btag": "deepjet:medium",
    "btag_ignoremissing":true,
    "btag_sf": [
        [
            "$CONFDIR/EWZjj_2016/EWZjj_2016_preVFP/EWZjj_btag/DeepJet_106XUL16APVSF_new.csv",
            "$CONFDIR/EWZjj_2016/EWZjj_2016_preVFP/EWZjj_btag/EWZjj_btag_MuMu_UL16preVFP_leadMu30GeV_19p5lumi.root"
        ]
    ],
    "num_atleast_btagged": 0,
    "reapply_jec": false,
    
    "pv_x": 2,
    "pv_z": 24,
    "pv_ndog": 4,
    "high_pT_muon": 200,
    "muon_dxy":0.5,
    "muon_dz":1.0,
    "muon_pfRelIso04_015":0.25,
    "deltaR_muons_leading_subleading": 0.1,
    "deltaR_muon_jets": 0.4,

    "min_number_muons":2,

    "SR_abs_muon_eta_max": 2.4,
    "SR_leading_muon_pt_min": 30,
    "SR_subleading_muon_pt_min": 20,
    "SR_dimuon_mass_min":75,
    "SR_abs_jets_eta_max": 4.7,
    "SR_leading_jet_pt_min": 50,
    "SR_subleading_jet_pt_min": 50,
    "SR_dijet_mass_min":200,
    "SR_Dphi_jets_leading_subleading":2.5,
    "SR_detajj_min": 1.5,

    "cond_dif_mu_Z_mass": 15,
    "Zboson_mass": 91.1876,
    "Zboson_pT_min": 20,
    "pT_balance_min": 15,
    "dphill_max":2.8,

    "min_number_jets":2,
    "jets_pt_max_no_puID": 50,
    "jets_puID_111_pass_loose_medium_tightID":1,
    "columns_to_save":[
         [
            "event_id"
         ],
         [
            "dimuon",
            ["pt", "eta", "phi", "mass"]
         ],
         [
            "detall"
         ],
         [
            "dphill"
         ],
         [
            "dijet",
            ["pt", "eta", "phi", "mass"]
         ],
         [
            "detajj"
         ],
         [
            "dphijj"
         ],
         [
            "z_star"
         ],
         [
            "R_pT_hard"
         ],
         [
            "leading_jet_QGL"
         ],
         [
            "subleading_jet_QGL"
         ],
         [
            "Jet",
            ["pt", "eta", "phi", "mass"]
         ],
         [
            "Muon",
            ["pt", "eta", "phi", "mass"]
         ],
         [
            "alpha_jj"
         ],
         [
            "alpha_jjZ"
         ],
         [
            "dR_jets_l_mu"
         ],
         [
            "dR_jets_s_mu"
         ],
         [
            "DphiZ_l_jet"
         ],
         [
            "DphiZ_s_jet"
         ],
         [
            "DphiZ_jets"
         ],
         [
            "alpha_jjZ_1j"
         ],
         [
            "alpha_jj"
         ],
         [
            "alpha_jjZ"
         ]
    ],
    "column_output_format": "hdf5",
    "hists": "$CONFDIR/EWZjj_files/EWZjj_histograms_btag_bigger_bins.json",

    "data_pu_hist":"/nfs/dust/cms/user/moralfk/EWZjj_Pepper/EWZjj/EWZjj_2016/EWZjj_2016_preVFP/EWZjj_PU/pileup_ul2016.root",
    "data_pu_hist_up":"/nfs/dust/cms/user/moralfk/EWZjj_Pepper/EWZjj/EWZjj_2016/EWZjj_2016_preVFP/EWZjj_PU/pileup_ul2016.root",
    "data_pu_hist_down":"/nfs/dust/cms/user/moralfk/EWZjj_Pepper/EWZjj/EWZjj_2016/EWZjj_2016_preVFP/EWZjj_PU/pileup_ul2016.root"
}
